;
; Copyright (c) Microsoft Corporation.  All rights reserved.
;
;
; Use of this sample source code is subject to the terms of the Microsoft
; license agreement under which you licensed this sample source code. If
; you did not accept the terms of the license agreement, you are not
; authorized to use this sample source code. For the terms of the license,
; please see the license agreement between you and Microsoft or, if applicable,
; see the LICENSE.RTF on your install media or the root of your tools installation.
; THE SAMPLE SOURCE CODE IS PROVIDED "AS IS", WITH NO WARRANTIES OR INDEMNITIES.
;


; @CESYSGEN IF SHELL_MODULES_EXPLORER
root:-Directory("Program Files")
root:-Directory("My Documents")
root:-Directory("My Recent Documents")
Directory("\Windows"):-Directory("Desktop")
Directory("\Windows"):-Directory("Programs")
Directory("\Windows\Programs"):-File("Windows Explorer.lnk", "\Windows\explore.lnk")
; @CESYSGEN ENDIF SHELL_MODULES_EXPLORER

; @CESYSGEN IF SHELL_MODULES_MEXPLORER
; @CESYSGEN ENDIF SHELL_MODULES_MEXPLORER

; Shortcuts for binaries built before shell in _DEPTREES, should be added here

; XRSHELL
; @CESYSGEN IF SHELL_MODULES_XRSHELL
; @CESYSGEN IF IE7_MODULES_IEEXR_MEDSCR
; @CESYSGEN ENDIF
; @CESYSGEN IF MEDIAAPPS_MODULES_MMPLAYER
; @CESYSGEN ENDIF
; @CESYSGEN IF MEDIAAPPS_MODULES_MVPLAYER
; @CESYSGEN ENDIF
; @CESYSGEN IF MEDIAAPPS_MODULES_MPVIEWER
; @CESYSGEN ENDIF
; @CESYSGEN IF WCESHELLFE_MODULES_DISPLAYCPL_SMR
; @CESYSGEN ENDIF
; @CESYSGEN IF SHELL_MODULES_XRSHELL_BLUETOOTHSTATUS
; @CESYSGEN ENDIF
; @CESYSGEN IF SHELL_MODULES_XRSHELL_POWERSTATUS
; @CESYSGEN ENDIF
; @CESYSGEN IF WCESHELLFE_MODULES_ETHERNETCPL_SMR
; @CESYSGEN ENDIF
; @CESYSGEN IF SHELL_MODULES_XRSHELL_NETWORKSTATUS
; @CESYSGEN ENDIF
; @CESYSGEN IF SHELL_MODULES_XRSHELL_VOLUMESTATUS
; @CESYSGEN ENDIF
; @CESYSGEN IF WCESHELLFE_MODULES_REGIONALCPL_SMR
; @CESYSGEN ENDIF
; @CESYSGEN ENDIF SHELL_MODULES_XRSHELL

; @CESYSGEN IF SHELL_MODULES_EXPLORER

; COMMON
; @CESYSGEN IF CE_MODULES_REMNET || CE_MODULES_PEGTERM
; @CESYSGEN ENDIF CE_MODULES_REMNET || CE_MODULES_PEGTERM
; @CESYSGEN IF CE_MODULES_REMNET
; @CESYSGEN ENDIF CE_MODULES_REMNET
; @CESYSGEN IF CE_MODULES_PEGTERM
; @CESYSGEN ENDIF CE_MODULES_PEGTERM
; @CESYSGEN IF CE_MODULES_CMD
Directory("\Windows\Programs"):-File("Command Prompt.lnk","\Windows\cmd.lnk")
Directory("\Program Files"):-File("Command Prompt.lnk","\Windows\cmd.lnk")
; @CESYSGEN ENDIF CE_MODULES_CMD

; RDP
; @CESYSGEN IF RDP_MODULES_CETSC
; @CESYSGEN ENDIF

; WCESHELLFE
; @CESYSGEN IF WCESHELLFE_MODULES_CONTROL
root:-File("Control Panel.lnk", "\Windows\control.lnk")
; @CESYSGEN ENDIF WCESHELLFE_MODULES_CONTROL
; @CESYSGEN IF WCESHELLFE_MODULES_SOLITARE
; @CESYSGEN ENDIF WCESHELLFE_MODULES_SOLITARE
; @CESYSGEN IF WCESHELLFE_MODULES_FREECELL
; @CESYSGEN ENDIF WCESHELLFE_MODULES_FREECELL



; @CESYSGEN ENDIF SHELL_MODULES_EXPLORER
