BUILD: [00:0000000000:PROGC ] Build started with parameters: -c
BUILD: [00:0000000001:PROGC ] Build started in directory: D:\WINC700\PLATFORM\common\src\soc\COMMON_TI_V1\COMMON_TI\OAL\OMAP_OALI2C
BUILD: [00:0000000002:PROGC ] Running passes WCEFILES0, MIDL, MC, ASN, THUNK, PRECOMPHEADER, COMPILE, LOCALIZE, RENUMBERICONIDS, RES2RES, LIB, EXPLIB, LINK, MANAGEDRESX, MANAGEDMOD, MANAGEDDLL, MANAGEDEXE, MANAGEDWIN, POSTBUILD for ARM.
BUILD: [00:0000000003:PROGC ] Ignoring build database (-c specified).
BUILD: [00:0000000004:PROGC ] Computing include file dependencies:
BUILD: [01:0000000005:PROGC ] Scan D:\WINC700\PLATFORM\common\src\soc\COMMON_TI_V1\COMMON_TI\OAL\OMAP_OALI2C\
BUILD: [01:0000000007:PROGC ] ReadSourcesFiles for project D:\WINC700\PLATFORM\common\src\soc\COMMON_TI_V1\COMMON_TI\OAL\OMAP_OALI2C\.
BUILD: [00:0000000008:PROGC ] Directory scanning complete.
BUILD: [00:0000000009:PROGC ] Saving D:\WINC700\PLATFORM\common\BuildARMV7retail.dat.
BUILD: [00:0000000011:PROGC ] Saving Master Database complete.
BUILD: [00:0000000012:PROGC ] Starting WCEFILES0 Pass.
BUILD: [00:0000000013:PROGC ] Analyzing project dependency information for pass WCEFILES0.
BUILD: [00:0000000014:PROGC ] Starting MIDL Pass.
BUILD: [00:0000000015:PROGC ] Analyzing project dependency information for pass MIDL.
BUILD: [00:0000000016:PROGC ] Starting MC Pass.
BUILD: [00:0000000017:PROGC ] Analyzing project dependency information for pass MC.
BUILD: [00:0000000018:PROGC ] Starting ASN Pass.
BUILD: [00:0000000019:PROGC ] Analyzing project dependency information for pass ASN.
BUILD: [00:0000000020:PROGC ] Starting THUNK Pass.
BUILD: [00:0000000021:PROGC ] Analyzing project dependency information for pass THUNK.
BUILD: [00:0000000022:PROGC ] Starting PRECOMPHEADER Pass.
BUILD: [00:0000000023:PROGC ] Analyzing project dependency information for pass PRECOMPHEADER.
BUILD: [00:0000000024:PROGC ] Starting COMPILE Pass.
BUILD: [00:0000000025:PROGC ] Analyzing project dependency information for pass COMPILE.
BUILD: [00:0000000027:PROGC ] Building COMPILE Pass in D:\WINC700\PLATFORM\common\src\soc\COMMON_TI_V1\COMMON_TI\OAL\OMAP_OALI2C\ directory.
BUILD: [01:0000000040:PROGC ] Compiling .\oali2c.c
BUILD: [00:0000000043:PROGC ] Starting LOCALIZE Pass.
BUILD: [00:0000000044:PROGC ] Analyzing project dependency information for pass LOCALIZE.
BUILD: [00:0000000045:PROGC ] Starting RENUMBERICONIDS Pass.
BUILD: [00:0000000046:PROGC ] Analyzing project dependency information for pass RENUMBERICONIDS.
BUILD: [00:0000000047:PROGC ] Starting RES2RES Pass.
BUILD: [00:0000000048:PROGC ] Analyzing project dependency information for pass RES2RES.
BUILD: [00:0000000049:PROGC ] Starting LIB Pass.
BUILD: [00:0000000050:PROGC ] Analyzing project dependency information for pass LIB.
BUILD: [00:0000000053:PROGC ] Building LIB Pass in D:\WINC700\PLATFORM\common\src\soc\COMMON_TI_V1\COMMON_TI\OAL\OMAP_OALI2C\ directory.
BUILD: [01:0000000066:PROGC ] Linking D:\WINC700\Osdesigns\VAR_SOM_AM35_REL\VAR_SOM_AM35_REL\Wince700\VAR_SOM_AM35_ARMV7_Retail\cesysgen\platcomm\VAR_SOM_AM35\lib\ARMV7\retail\common_ti_oali2c.lib
BUILD: [00:0000000074:PROGC ] Starting EXPLIB Pass.
BUILD: [00:0000000075:PROGC ] Analyzing project dependency information for pass EXPLIB.
BUILD: [00:0000000076:PROGC ] Starting LINK Pass.
BUILD: [00:0000000077:PROGC ] Analyzing project dependency information for pass LINK.
BUILD: [00:0000000078:PROGC ] Starting MANAGEDRESX Pass.
BUILD: [00:0000000079:PROGC ] Analyzing project dependency information for pass MANAGEDRESX.
BUILD: [00:0000000080:PROGC ] Starting MANAGEDMOD Pass.
BUILD: [00:0000000081:PROGC ] Analyzing project dependency information for pass MANAGEDMOD.
BUILD: [00:0000000082:PROGC ] Starting MANAGEDDLL Pass.
BUILD: [00:0000000083:PROGC ] Analyzing project dependency information for pass MANAGEDDLL.
BUILD: [00:0000000084:PROGC ] Starting MANAGEDEXE Pass.
BUILD: [00:0000000085:PROGC ] Analyzing project dependency information for pass MANAGEDEXE.
BUILD: [00:0000000086:PROGC ] Starting MANAGEDWIN Pass.
BUILD: [00:0000000087:PROGC ] Analyzing project dependency information for pass MANAGEDWIN.
BUILD: [00:0000000088:PROGC ] Starting POSTBUILD Pass.
BUILD: [00:0000000089:PROGC ] Analyzing project dependency information for pass POSTBUILD.
BUILD: [00:0000000090:PROGC ] Saving D:\WINC700\PLATFORM\common\BuildARMV7retail.dat.
BUILD: [00:0000000092:PROGC ] Done.
BUILD: [00:0000000093:PROGC ]                        Files  Warnings  Errors
BUILD: [00:0000000094:PROGC ] Midl                       0         0       0
BUILD: [00:0000000095:PROGC ] Message                    0         0       0
BUILD: [00:0000000096:PROGC ] Precomp Header             0         0       0
BUILD: [00:0000000097:PROGC ] Resource                   0         0       0
BUILD: [00:0000000098:PROGC ] XRPack                     0         0       0
BUILD: [00:0000000099:PROGC ] MASM                       0         0       0
BUILD: [00:0000000100:PROGC ] SHASM                      0         0       0
BUILD: [00:0000000101:PROGC ] ARMASM                     0         0       0
BUILD: [00:0000000102:PROGC ] MIPSASM                    0         0       0
BUILD: [00:0000000103:PROGC ] C++                        0         0       0
BUILD: [00:0000000104:PROGC ] C                          1         0       0
BUILD: [00:0000000105:PROGC ] CheckLibs                  0         0       0
BUILD: [00:0000000106:PROGC ] Static Libraries           1         0       0
BUILD: [00:0000000107:PROGC ] Exe's                      0         0       0
BUILD: [00:0000000108:PROGC ] Dll's                      0         0       0
BUILD: [00:0000000109:PROGC ] Preprocess deffile         0         0       0
BUILD: [00:0000000110:PROGC ] Resx                       0         0       0
BUILD: [00:0000000111:PROGC ] CSharp Compile             0         0       0
BUILD: [00:0000000112:PROGC ] VCProj Compile             0         0       0
BUILD: [00:0000000113:PROGC ] Other                      0         0       0
BUILD: [00:0000000114:PROGC ] 
BUILD: [00:0000000115:PROGC ] Total                      2         0       0
BUILD: [00:0000000116:PROGC ] 
BUILD: [00:0000000117:PROGC ] 0 Warnings,  0 Errors
BUILD: [00:0000000118:PROGC ] GetSystemTimes (seconds): Idle: 50    Kernel: 51    User: 1    
BUILD: [00:0000000119:PROGC ] Elapsed  time  (seconds): 6    
