isr16550 
oalioctl 
fpcrt 
msim 
softkb 
errhandlekb 
compositor 
gdicompositor 
regextdev 
console 
cmd 
commdlg 
shell 
loaddbg 
cerdisp 
ws2 
DllHeapInfoExt 
relfsd 
relfsdext 
lpcd 
lpcrt 
net 
secur32 
ntlmssp 
ntlmssp_svc 
spnego 
schannel 
credsvc 
credprov 
prnerr 
iri 
rnaapp 
connmc 
ndispwr 
netui 
CmNet 
CmService 
CmCspIp 
CmCspWwan 
CmCspRas 
WsCmExt 
ProxySvc 
ProxyDBS 
RmNet 
RspBasic 
RspCellular 
asyncmac 
unimodem 
servicesFilter 
servicesStart 
servicesenum 
services 
cxport 
ndis 
ceddk 
rpcrt4 
nsi 
nsiproxy 
winnsi 
nsisvc 
tcpipreg 
dnsapi 
afd 
ws2instl 
wspm 
nspm 
ws2k 
ws2serv 
ssllsp 
netmui 
e100bex 
ne2000isr 
ne2000 
dhcp 
dhcpv6 
ethman 
ndisuio 
veim 
dhcpsrv 
autoras 
rsaenh 
tapi 
msasn1 
ncrypt 
keyiso 
alpcd 
netbios 
ping 
ipconfig 
ipconfig6 
tracert 
route 
k.iphlpapi 
iphlpapi 
iphlpapi 
ndisconfig 
ipv6 
kbdus 
kbdjpn 
otls 
shaping 
xamlruntime 
xamlruntimecore 
XRRendererDDraw 
tchcaldll 
tchproxy 
ddi_ragexl 
ddi_hflat 
ddi_nop 
PhysicsEngine 
gsm610 
es1371 
wavedev2_ensoniq 
wavedev2_virtual 
battdrvr 
nleddrvr 
timezones 
udevice 
regenum 
busenum 
giisr 
mmtimer 
pcibus 
gdcfg 
com16550 
Kbd8042 
KbdNop 
sdbus 
sdmemory 
ohci2 
uhci 
ehci 
ehcicert 
usbd 
k.usbd 
usbhid 
hidparse 
kbdhid 
conshid 
MouHid 
serialusbfn 
exfat 
diskcache 
cereg 
mspart 
zlib 
xmllite 
romfsd 
bcrypt 
ccfgsvc 
nlslocale 
nlssorting 
nlsnormalize 
toolhelp 
vmini 
ceperf_module 
kd 
hd 
osaxst0 
osaxst1 
