BUILD: [00:0000000000:PROGC ] Build started with parameters:
BUILD: [00:0000000001:PROGC ] Build started in directory: C:\WINCE700\platform\EVM_OMAP3530_nvar\SRC\BOOTLOADER\DISPLAY
BUILD: [00:0000000002:PROGC ] Running passes WCEFILES0, MIDL, MC, ASN, THUNK, PRECOMPHEADER, COMPILE, LOCALIZE, RENUMBERICONIDS, RES2RES, LIB, EXPLIB, LINK, MANAGEDRESX, MANAGEDMOD, MANAGEDDLL, MANAGEDEXE, MANAGEDWIN, POSTBUILD for ARM.
BUILD: [00:0000000003:PROGC ] Loading database "C:\WINCE700\platform\EVM_OMAP3530_nvar\BuildARMV7retail.dat".
BUILD: [00:0000000004:PROGC ] Done.
BUILD: [00:0000000005:PROGC ] Computing include file dependencies:
BUILD: [01:0000000006:PROGC ] Scan C:\WINCE700\platform\EVM_OMAP3530_nvar\SRC\BOOTLOADER\DISPLAY\
BUILD: [01:0000000008:PROGC ] ReadSourcesFiles for project C:\WINCE700\platform\EVM_OMAP3530_nvar\SRC\BOOTLOADER\DISPLAY\.
BUILD: [00:0000000009:PROGC ] Directory scanning complete.
BUILD: [00:0000000010:PROGC ] Saving C:\WINCE700\platform\EVM_OMAP3530_nvar\BuildARMV7retail.dat.
BUILD: [00:0000000012:PROGC ] Saving Master Database complete.
BUILD: [00:0000000013:PROGC ] Starting WCEFILES0 Pass.
BUILD: [00:0000000014:PROGC ] Analyzing project dependency information for pass WCEFILES0.
BUILD: [00:0000000015:PROGC ] Starting MIDL Pass.
BUILD: [00:0000000016:PROGC ] Analyzing project dependency information for pass MIDL.
BUILD: [00:0000000017:PROGC ] Starting MC Pass.
BUILD: [00:0000000018:PROGC ] Analyzing project dependency information for pass MC.
BUILD: [00:0000000019:PROGC ] Starting ASN Pass.
BUILD: [00:0000000020:PROGC ] Analyzing project dependency information for pass ASN.
BUILD: [00:0000000021:PROGC ] Starting THUNK Pass.
BUILD: [00:0000000022:PROGC ] Analyzing project dependency information for pass THUNK.
BUILD: [00:0000000023:PROGC ] Starting PRECOMPHEADER Pass.
BUILD: [00:0000000024:PROGC ] Analyzing project dependency information for pass PRECOMPHEADER.
BUILD: [00:0000000025:PROGC ] Starting COMPILE Pass.
BUILD: [00:0000000026:PROGC ] Analyzing project dependency information for pass COMPILE.
BUILD: [00:0000000027:PROGC ] Starting LOCALIZE Pass.
BUILD: [00:0000000028:PROGC ] Analyzing project dependency information for pass LOCALIZE.
BUILD: [00:0000000029:PROGC ] Starting RENUMBERICONIDS Pass.
BUILD: [00:0000000030:PROGC ] Analyzing project dependency information for pass RENUMBERICONIDS.
BUILD: [00:0000000031:PROGC ] Starting RES2RES Pass.
BUILD: [00:0000000032:PROGC ] Analyzing project dependency information for pass RES2RES.
BUILD: [00:0000000033:PROGC ] Starting LIB Pass.
BUILD: [00:0000000034:PROGC ] Analyzing project dependency information for pass LIB.
BUILD: [00:0000000035:PROGC ] Starting EXPLIB Pass.
BUILD: [00:0000000036:PROGC ] Analyzing project dependency information for pass EXPLIB.
BUILD: [00:0000000037:PROGC ] Starting LINK Pass.
BUILD: [00:0000000038:PROGC ] Analyzing project dependency information for pass LINK.
BUILD: [00:0000000039:PROGC ] Starting MANAGEDRESX Pass.
BUILD: [00:0000000040:PROGC ] Analyzing project dependency information for pass MANAGEDRESX.
BUILD: [00:0000000041:PROGC ] Starting MANAGEDMOD Pass.
BUILD: [00:0000000042:PROGC ] Analyzing project dependency information for pass MANAGEDMOD.
BUILD: [00:0000000043:PROGC ] Starting MANAGEDDLL Pass.
BUILD: [00:0000000044:PROGC ] Analyzing project dependency information for pass MANAGEDDLL.
BUILD: [00:0000000045:PROGC ] Starting MANAGEDEXE Pass.
BUILD: [00:0000000046:PROGC ] Analyzing project dependency information for pass MANAGEDEXE.
BUILD: [00:0000000047:PROGC ] Starting MANAGEDWIN Pass.
BUILD: [00:0000000048:PROGC ] Analyzing project dependency information for pass MANAGEDWIN.
BUILD: [00:0000000049:PROGC ] Starting POSTBUILD Pass.
BUILD: [00:0000000050:PROGC ] Analyzing project dependency information for pass POSTBUILD.
BUILD: [00:0000000051:PROGC ] Saving C:\WINCE700\platform\EVM_OMAP3530_nvar\BuildARMV7retail.dat.
BUILD: [00:0000000053:PROGC ] Done.
BUILD: [00:0000000054:PROGC ]                        Files  Warnings  Errors
BUILD: [00:0000000055:PROGC ] Midl                       0         0       0
BUILD: [00:0000000056:PROGC ] Message                    0         0       0
BUILD: [00:0000000057:PROGC ] Precomp Header             0         0       0
BUILD: [00:0000000058:PROGC ] Resource                   0         0       0
BUILD: [00:0000000059:PROGC ] XRPack                     0         0       0
BUILD: [00:0000000060:PROGC ] MASM                       0         0       0
BUILD: [00:0000000061:PROGC ] SHASM                      0         0       0
BUILD: [00:0000000062:PROGC ] ARMASM                     0         0       0
BUILD: [00:0000000063:PROGC ] MIPSASM                    0         0       0
BUILD: [00:0000000064:PROGC ] C++                        0         0       0
BUILD: [00:0000000065:PROGC ] C                          0         0       0
BUILD: [00:0000000066:PROGC ] CheckLibs                  0         0       0
BUILD: [00:0000000067:PROGC ] Static Libraries           0         0       0
BUILD: [00:0000000068:PROGC ] Exe's                      0         0       0
BUILD: [00:0000000069:PROGC ] Dll's                      0         0       0
BUILD: [00:0000000070:PROGC ] Preprocess deffile         0         0       0
BUILD: [00:0000000071:PROGC ] Resx                       0         0       0
BUILD: [00:0000000072:PROGC ] CSharp Compile             0         0       0
BUILD: [00:0000000073:PROGC ] VCProj Compile             0         0       0
BUILD: [00:0000000074:PROGC ] Other                      0         0       0
BUILD: [00:0000000075:PROGC ] 
BUILD: [00:0000000076:PROGC ] Total                      0         0       0
BUILD: [00:0000000077:PROGC ] 
BUILD: [00:0000000078:PROGC ] 0 Warnings,  0 Errors
BUILD: [00:0000000079:PROGC ] GetSystemTimes (seconds): Idle: 1     Kernel: 1     User: 0    
BUILD: [00:0000000080:PROGC ] Elapsed  time  (seconds): 0    
