BUILD: [00:0000000000:PROGC ] Build started with parameters:
BUILD: [00:0000000001:PROGC ] Build started in directory: C:\WINCE700\platform\EVM_OMAP3530_nvar\SRC\BOOTLOADER\XLDR
BUILD: [00:0000000002:PROGC ] Running passes WCEFILES0, MIDL, MC, ASN, THUNK, PRECOMPHEADER, COMPILE, LOCALIZE, RENUMBERICONIDS, RES2RES, LIB, EXPLIB, LINK, MANAGEDRESX, MANAGEDMOD, MANAGEDDLL, MANAGEDEXE, MANAGEDWIN, POSTBUILD for ARM.
BUILD: [00:0000000003:PROGC ] Loading database "C:\WINCE700\platform\EVM_OMAP3530_nvar\BuildARMV7retail.dat".
BUILD: [00:0000000004:PROGC ] Done.
BUILD: [00:0000000005:PROGC ] Computing include file dependencies:
BUILD: [01:0000000006:PROGC ] Scan C:\WINCE700\platform\EVM_OMAP3530_nvar\SRC\BOOTLOADER\XLDR\NAND\
BUILD: [01:0000000007:PROGC ] ReadSourcesFiles for project C:\WINCE700\platform\EVM_OMAP3530_nvar\SRC\BOOTLOADER\XLDR\NAND\.
BUILD: [02:0000000008:PROGC ] Scan C:\WINCE700\platform\EVM_OMAP3530_nvar\SRC\BOOTLOADER\XLDR\UART\
BUILD: [02:0000000009:PROGC ] ReadSourcesFiles for project C:\WINCE700\platform\EVM_OMAP3530_nvar\SRC\BOOTLOADER\XLDR\UART\.
BUILD: [00:0000000011:PROGC ] Directory scanning complete.
BUILD: [00:0000000012:PROGC ] Saving C:\WINCE700\platform\EVM_OMAP3530_nvar\BuildARMV7retail.dat.
BUILD: [00:0000000014:PROGC ] Saving Master Database complete.
BUILD: [00:0000000015:PROGC ] Starting WCEFILES0 Pass.
BUILD: [00:0000000016:PROGC ] Analyzing project dependency information for pass WCEFILES0.
BUILD: [00:0000000017:PROGC ] Starting MIDL Pass.
BUILD: [00:0000000018:PROGC ] Analyzing project dependency information for pass MIDL.
BUILD: [00:0000000019:PROGC ] Starting MC Pass.
BUILD: [00:0000000020:PROGC ] Analyzing project dependency information for pass MC.
BUILD: [00:0000000021:PROGC ] Starting ASN Pass.
BUILD: [00:0000000022:PROGC ] Analyzing project dependency information for pass ASN.
BUILD: [00:0000000023:PROGC ] Starting THUNK Pass.
BUILD: [00:0000000024:PROGC ] Analyzing project dependency information for pass THUNK.
BUILD: [00:0000000025:PROGC ] Starting PRECOMPHEADER Pass.
BUILD: [00:0000000026:PROGC ] Analyzing project dependency information for pass PRECOMPHEADER.
BUILD: [00:0000000027:PROGC ] Starting COMPILE Pass.
BUILD: [00:0000000028:PROGC ] Analyzing project dependency information for pass COMPILE.
BUILD: [00:0000000031:PROGC ] Starting LOCALIZE Pass.
BUILD: [00:0000000032:PROGC ] Analyzing project dependency information for pass LOCALIZE.
BUILD: [00:0000000033:PROGC ] Starting RENUMBERICONIDS Pass.
BUILD: [00:0000000034:PROGC ] Analyzing project dependency information for pass RENUMBERICONIDS.
BUILD: [00:0000000035:PROGC ] Starting RES2RES Pass.
BUILD: [00:0000000036:PROGC ] Analyzing project dependency information for pass RES2RES.
BUILD: [00:0000000037:PROGC ] Starting LIB Pass.
BUILD: [00:0000000038:PROGC ] Analyzing project dependency information for pass LIB.
BUILD: [00:0000000039:PROGC ] Starting EXPLIB Pass.
BUILD: [00:0000000040:PROGC ] Analyzing project dependency information for pass EXPLIB.
BUILD: [00:0000000041:PROGC ] Starting LINK Pass.
BUILD: [00:0000000042:PROGC ] Analyzing project dependency information for pass LINK.
BUILD: [00:0000000044:PROGC ] Building LINK Pass in C:\WINCE700\platform\EVM_OMAP3530_nvar\SRC\BOOTLOADER\XLDR\NAND\ directory.
BUILD: [00:0000000050:PROGC ] Building LINK Pass in C:\WINCE700\platform\EVM_OMAP3530_nvar\SRC\BOOTLOADER\XLDR\UART\ directory.
BUILD: [01:0000000062:PROGC ] Linking C:\WINCE700\OSDesigns\VAR_SOM_OM37_DBG\VAR_SOM_OM37_DBG\Wince700\EVM_OMAP3530_nvar_ARMV7_Retail\cesysgen\platform\EVM_OMAP3530_nvar\target\ARMV7\retail\xldrnand.exe
BUILD: [01:0000000577:PROGC ] Linking C:\WINCE700\OSDesigns\VAR_SOM_OM37_DBG\VAR_SOM_OM37_DBG\Wince700\EVM_OMAP3530_nvar_ARMV7_Retail\cesysgen\platform\EVM_OMAP3530_nvar\target\ARMV7\retail\xldruart.exe
BUILD: [00:0000001047:PROGC ] Starting MANAGEDRESX Pass.
BUILD: [00:0000001048:PROGC ] Analyzing project dependency information for pass MANAGEDRESX.
BUILD: [00:0000001049:PROGC ] Starting MANAGEDMOD Pass.
BUILD: [00:0000001050:PROGC ] Analyzing project dependency information for pass MANAGEDMOD.
BUILD: [00:0000001051:PROGC ] Starting MANAGEDDLL Pass.
BUILD: [00:0000001052:PROGC ] Analyzing project dependency information for pass MANAGEDDLL.
BUILD: [00:0000001053:PROGC ] Starting MANAGEDEXE Pass.
BUILD: [00:0000001054:PROGC ] Analyzing project dependency information for pass MANAGEDEXE.
BUILD: [00:0000001055:PROGC ] Starting MANAGEDWIN Pass.
BUILD: [00:0000001056:PROGC ] Analyzing project dependency information for pass MANAGEDWIN.
BUILD: [00:0000001057:PROGC ] Starting POSTBUILD Pass.
BUILD: [00:0000001058:PROGC ] Analyzing project dependency information for pass POSTBUILD.
BUILD: [00:0000001059:PROGC ] Saving C:\WINCE700\platform\EVM_OMAP3530_nvar\BuildARMV7retail.dat.
BUILD: [00:0000001061:PROGC ] Done.
BUILD: [00:0000001062:PROGC ]                        Files  Warnings  Errors
BUILD: [00:0000001063:PROGC ] Midl                       0         0       0
BUILD: [00:0000001064:PROGC ] Message                    0         0       0
BUILD: [00:0000001065:PROGC ] Precomp Header             0         0       0
BUILD: [00:0000001066:PROGC ] Resource                   0         0       0
BUILD: [00:0000001067:PROGC ] XRPack                     0         0       0
BUILD: [00:0000001068:PROGC ] MASM                       0         0       0
BUILD: [00:0000001069:PROGC ] SHASM                      0         0       0
BUILD: [00:0000001070:PROGC ] ARMASM                     0         0       0
BUILD: [00:0000001071:PROGC ] MIPSASM                    0         0       0
BUILD: [00:0000001072:PROGC ] C++                        0         0       0
BUILD: [00:0000001073:PROGC ] C                          0         0       0
BUILD: [00:0000001074:PROGC ] CheckLibs                  0         0       0
BUILD: [00:0000001075:PROGC ] Static Libraries           0         0       0
BUILD: [00:0000001076:PROGC ] Exe's                      2         0       0
BUILD: [00:0000001077:PROGC ] Dll's                      0         0       0
BUILD: [00:0000001078:PROGC ] Preprocess deffile         0         0       0
BUILD: [00:0000001079:PROGC ] Resx                       0         0       0
BUILD: [00:0000001080:PROGC ] CSharp Compile             0         0       0
BUILD: [00:0000001081:PROGC ] VCProj Compile             0         0       0
BUILD: [00:0000001082:PROGC ] Other                      0         0       0
BUILD: [00:0000001083:PROGC ] 
BUILD: [00:0000001084:PROGC ] Total                      2         0       0
BUILD: [00:0000001085:PROGC ] 
BUILD: [00:0000001086:PROGC ] 0 Warnings,  0 Errors
BUILD: [00:0000001087:PROGC ] GetSystemTimes (seconds): Idle: 9     Kernel: 10    User: 1    
BUILD: [00:0000001088:PROGC ] Elapsed  time  (seconds): 1    
